       IDENTIFICATION DIVISION.
       PROGRAM-ID. UTLS000.
       AUTHOR.        HOLLY C.
       DATE-WRITTEN.  APR 1998.
       DATE-COMPILED.

     ******************************************************************
     **                     CHANGE HISTORY                            *
     **                                                               *
     **REF  AUTH    DATE            DESCRIPTION                ACR NO.*
     **---  ----  -------- --------------------------------    ------ *
     **001  DEVNG 04/10/00 ADDED BILL TYPE 'A'                 24040  *
     **                                                               *
     ******************************************************************

      *%****************************************************************
      *%                                                               *
      *%  Converted using Forecross Corporation Redeployment Software  *
      *%                                                               *
      *%               Convert/IDMS-DB Version 8 Release 01            *
      *%                                                               *
      *%                Converted on 11/17/00 at 15:54                 *
      *%                                                               *
      *%****************************************************************
      *%              COPYRIGHT FORECROSS CORPORATION                  *
      *%                2000  ALL RIGHTS RESERVED                      *
      *%****************************************************************
           COPY CBCVDBNT.

      /
      *%-------------------------------------------------------------- *
      *%
      *%  *** TABLE VIEWS USED IN THIS PROGRAM
      *%
      *%EVT_EVENT_V           R4401-EVENT                      CBL CPY
      *%IVT_INV_ACCT_V        R4411-INV-ACCT                   CBL CPY
      *%TRI_TRVL_INV_V        R4410-TRVL-INV                   CBL CPY
      *%
      *%  *** CURSORS DECLARED IN THIS PROGRAM
      *%
      *%CURSOR S_4401_4411_N - FORWARD SUBSET OF R4411-INV-ACCT
      *%
      *%  *** SUBROUTINES GENERATED FOR THIS PROGRAM
      *%
      *%000-SQL-INITIALIZATION
      *%986-RESET-KEYS
      *%906-00N-S-4401-4411
      *%906-04-S-4410-4411
      *%906-05-R4401-EVENT
      *%906-05-R4410-TRVL-INV
      *%985-CURR-R4401-EVENT
      *%985-CURR-R4410-TRVL-INV
      *%985-CURR-R4411-INV-ACCT
      *%985-EOS-S-4401-4411
      *%996-COMMIT
      *%
      *%-------------------------------------------------------------- *
       ENVIRONMENT DIVISION.
       CONFIGURATION SECTION.

       SOURCE-COMPUTER.
       OBJECT-COMPUTER.

       INPUT-OUTPUT SECTION.
       FILE-CONTROL.

      *IDMS-CONTROL SECTION.                                            00360000
      *PROTOCOL.   MODE IS BATCH-AUTOSTATUS DEBUG.                      00370000
      *%           IDMS-RECORDS MANUAL.                                 00380000
                                                                        00390000
       DATA DIVISION.                                                   00400000
                                                                        00410000
      *SCHEMA SECTION.                                                  00420000
      *DB FIMSNWKB WITHIN FIMSNTWN.                                     00430000
                                                                        00440000

       WORKING-STORAGE SECTION.
      *
       01  DBLINK-USER-CD   PIC X(8) VALUE 'UTLS000'.
020300 01  WORK-DATES.
           05  WS-TEST-DATE.
               07  WS-TEST-DATE-CENT  PIC 9(02).
               07  WS-TEST-DATE-YEAR  PIC 9(02).
               07  WS-TEST-DATE-MONTH PIC 9(02).
               07  WS-TEST-DATE-DAY   PIC 9(02).
           05  WS-SYSTEM-DATE.
               07  WS-SYSTEM-DATE-CENT  PIC 9(02).
               07  WS-SYSTEM-DATE-YEAR  PIC 9(02).
               07  WS-SYSTEM-DATE-MONTH PIC 9(02).
               07  WS-SYSTEM-DATE-DAY   PIC 9(02).
           05  WS-SYSTEM-DATE-99 REDEFINES WS-SYSTEM-DATE PIC 9(08).
           05  WS-START-DATE-99  PIC 9(08).
           05  WS-END-DATE-99  PIC 9(08).
           05  WS-ACCEPT-DATE.
               07  WS-ACCEPT-DATE-YEAR  PIC 9(02) VALUE ZEROES.
               07  WS-ACCEPT-DATE-MONTH PIC 9(02) VALUE ZEROES.
               07  WS-ACCEPT-DATE-DAY   PIC 9(02) VALUE ZEROES.
           05  WS-DISPLAY-DATE.
               07  WS-DISPLAY-DATE-MONTH PIC X(02) VALUE ZEROES.
               07  WS-FILLER             PIC X(01) VALUE '/'.
               07  WS-DISPLAY-DATE-DAY   PIC X(02) VALUE ZEROES.
               07  WS-FILLER             PIC X(01) VALUE '/'.
               07  WS-DISPLAY-DATE-YEAR  PIC X(02) VALUE ZEROES.

       01  WORK-REF-ID.
           05  WS-INTRL-REF-ID-3        PIC 9(6) COMP-3.
           05  WS-INTRL-REF-ID-9        PIC 9(6).
           05  WS-INTRL-REF-ID-X      PIC X(6).
       01  HEX-CODES.
           03  N-TAB            PIC 9(4)  VALUE 5  USAGE COMP-4.
           03  XX-TAB REDEFINES N-TAB.
             05  FILLER         PIC X(1).
             05  H-TAB          PIC X(1).
      *
           03  N-DQU            PIC 9(4)  VALUE 127  USAGE COMP-4.
           03  XX-DQU REDEFINES N-DQU.
             05  FILLER         PIC X(1).
             05  H-DQU          PIC X(1).
      *
           03  N-CRLF           PIC 9(4)  VALUE 3349 USAGE COMP-4.
           03  H-CRLF  REDEFINES N-CRLF.
             05  H-CR           PIC X(1).
             05  H-LF           PIC X(1).
      *
           03  H-NULL           PIC X(1)  VALUE LOW-VALUES.
           03  H-EOM.
             05 H-EOM1          PIC X(1).
             05 H-EOM2          PIC X(1).
             05 H-EOM3          PIC X(1).
             05 H-EOM4          PIC X(1).
             05 H-EOM5          PIC X(1).
             05 H-EOM6          PIC X(1).
      *
       01  DPARM                    PIC X(128) VALUE SPACES.
       01  DATP-ARRAY  REDEFINES DPARM.
           03  FILLER               PIC X(01).
           03  DATA-UNVRS           PIC X(04).
           03  STU-UNVRS-CODE       PIC X(02).
           03  FILLER               PIC X(01).
           03  DATA-EVENT           PIC X(04).
           03  EVENT-NUMBER         PIC X(08).
           03  FILLER               PIC X(108).
       01  UTLS000O-RECORD.
           03  UTLS000O-RECORD-TYPE.
              05  UTLS000O-REC-NAME           PIC X(08).
                   05 FILLER               PIC X(001) VALUE X'05'.
              05  UTLS000O-DOCUMENT-NUMBER    PIC X(008).
                   05 FILLER               PIC X(001) VALUE X'05'.
              05  UTLS000O-BILL-TYPE       PIC X(001).
                   05 FILLER               PIC X(001) VALUE X'05'.
              05  UTLS000O-INV-AMT         PIC 9(010)V99.
                   05 FILLER               PIC X(001) VALUE X'05'.
              05  UTLS000O-INV-DATE        PIC X(008).
              05 FILLER                    PIC X(001) VALUE X'25'.

       01  WS-FIRST-TIME            PIC X(01) VALUE 'Y'.
      ***************************************************************
      **  EXAMPLE OF CANNED HTML TEXT  ******************************
      ***************************************************************
      *
       01  TEXT-SUB                 PIC 9(4).
      *
      ****************************************************************
      *
       01  WS-SWITCHES.
           03  END-OF-IT                  PIC X(01)  VALUE 'N'.
               88  END-OF-DATA                       VALUE 'Y'.
           03  END-OF-LEVEL               PIC X(01)  VALUE 'N'.
               88  END-OF-LVL-DATA                   VALUE 'Y'.
           03  END-OF-TMPLT               PIC X(01)  VALUE 'N'.
               88  END-OF-TMP-DATA                   VALUE 'Y'.
           03  END-OF-APRVL               PIC X(01)  VALUE 'N'.
               88  END-OF-APR-DATA                   VALUE 'Y'.

      ****************************************************************  09620000
      *  IDMS/R DICTIONARY RECORDS USED BY PROGRAM                      09630000
      ****************************************************************  09640000
      *                                                                 09650000
      *01  COPY IDMS SUBSCHEMA-CONTROL.
       01  SUBSCHEMA-CONTROL  PIC X.

      *%****************************** *
      *% EVT_EVENT_V DATA VIEW AREAS
      *%****************************** *
      *%   COPY CBID4401.
CPYNME     COPY R4401.
      *01  COPY IDMS R4401-EVENT.                                       08070000

      *%****************************** *
      *% IVT_INV_ACCT_V DATA VIEW AREAS
      *%****************************** *
      *%   COPY CBID4411.
CPYNME     COPY R4411.
      *01  COPY IDMS R4411-INV-ACCT.                                    08070000

      *%****************************** *
      *% TRI_TRVL_INV_V DATA VIEW AREAS
      *%****************************** *
      *%   COPY CBID4410.
CPYNME     COPY R4410.
      *01  COPY IDMS R4410-TRVL-INV.                                    08070000
      /                                                                 02130000
      *                                                                 02130000
UCSD1      EXEC SQL
UCSD1          INCLUDE HVMSL
UCSD1      END-EXEC.
UCSD1 *%   EXEC SQL
UCSD1 *%       INCLUDE ACMSGHT
CPYNME     COPY ACMSGHT.
UCSD1 *%   END-EXEC.
           EXEC SQL
               INCLUDE CBCVDBCA
           END-EXEC.

      /
      *%-------------------------------------------------------------- *
      *%                                                               *
      *%          STANDARD CONVERT/DB COMMUNICATION AREAS              *
      *%                                                               *
      *%-------------------------------------------------------------- *
           COPY CBCVDBXD.
           COPY BTCHWS.
       01  DBLINK-NAMES.
           05  DBLINK-SCHEMA-NAME.
               10  FILLER                   PIC X(8)
                       VALUE 'FIMSNTWN'.
           05  DBLINK-RECORD-NAMES.
               10  DBLINK-R4000-COA         PIC X(16)
                       VALUE 'R4000-COA'.
               10  DBLINK-R4001-FUND        PIC X(16)
                       VALUE 'R4001-FUND'.
               10  DBLINK-R4002-ORGN        PIC X(16)
                       VALUE 'R4002-ORGN'.
               10  DBLINK-R4003-ACCT        PIC X(16)
                       VALUE 'R4003-ACCT'.
               10  DBLINK-R4004-PROG        PIC X(16)
                       VALUE 'R4004-PROG'.
               10  DBLINK-R4006-LCTN        PIC X(16)
                       VALUE 'R4006-LCTN'.
               10  DBLINK-R4008-FNDT        PIC X(16)
                       VALUE 'R4008-FNDT'.
               10  DBLINK-R4011-SYSDAT      PIC X(16)
                       VALUE 'R4011-SYSDAT'.
               10  DBLINK-R4014-ACTT        PIC X(16)
                       VALUE 'R4014-ACTT'.
               10  DBLINK-R4016-BDGT-CTRL   PIC X(16)
                       VALUE 'R4016-BDGT-CTRL'.
               10  DBLINK-R4021-CTRL-ACCTS  PIC X(16)
                       VALUE 'R4021-CTRL-ACCTS'.
               10  DBLINK-R4026-INDRT-COST  PIC X(16)
                       VALUE 'R4026-INDRT-COST'.
               10  DBLINK-R4030-COST-SHARE  PIC X(16)
                       VALUE 'R4030-COST-SHARE'.
               10  DBLINK-R4033-BANK        PIC X(16)
                       VALUE 'R4033-BANK'.
               10  DBLINK-R4035-PAY-MTHD    PIC X(16)
                       VALUE 'R4035-PAY-MTHD'.
               10  DBLINK-R4036-USER-RCRD   PIC X(16)
                       VALUE 'R4036-USER-RCRD'.
               10  DBLINK-R4038-USER-CODES  PIC X(16)
                       VALUE 'R4038-USER-CODES'.
               10  DBLINK-R4040-CLOSE-HDR   PIC X(16)
                       VALUE 'R4040-CLOSE-HDR'.
               10  DBLINK-R4045-ACTI        PIC X(16)
                       VALUE 'R4045-ACTI'.
               10  DBLINK-R4046-BANK-NAME   PIC X(16)
                       VALUE 'R4046-BANK-NAME'.
               10  DBLINK-R4050-ACTV        PIC X(16)
                       VALUE 'R4050-ACTV'.
               10  DBLINK-R4052-XTRN-ENTY   PIC X(16)
                       VALUE 'R4052-XTRN-ENTY'.
               10  DBLINK-R4053-INTR-ENTY   PIC X(16)
                       VALUE 'R4053-INTR-ENTY'.
               10  DBLINK-R4054-XTRN-CODE   PIC X(16)
                       VALUE 'R4054-XTRN-CODE'.
               10  DBLINK-R4056-AGNC        PIC X(16)
                       VALUE 'R4056-AGNC'.
               10  DBLINK-R4057-RQST-ID     PIC X(16)
                       VALUE 'R4057-RQST-ID'.
               10  DBLINK-R4060-RPT         PIC X(16)
                       VALUE 'R4060-RPT'.
               10  DBLINK-R4064-CS-EFCTV    PIC X(16)
                       VALUE 'R4064-CS-EFCTV'.
               10  DBLINK-R4065-IC-EFCTV    PIC X(16)
                       VALUE 'R4065-IC-EFCTV'.
               10  DBLINK-R4069-JRNL-HDR    PIC X(16)
                       VALUE 'R4069-JRNL-HDR'.
               10  DBLINK-R4070-RQST        PIC X(16)
                       VALUE 'R4070-RQST'.
               10  DBLINK-R4071-RQST-DTL    PIC X(16)
                       VALUE 'R4071-RQST-DTL'.
               10  DBLINK-R4072-BUYER       PIC X(16)
                       VALUE 'R4072-BUYER'.
               10  DBLINK-R4073-VENDOR      PIC X(16)
                       VALUE 'R4073-VENDOR'.
               10  DBLINK-R4074-CMDTY       PIC X(16)
                       VALUE 'R4074-CMDTY'.
               10  DBLINK-R4081-AGRMNT      PIC X(16)
                       VALUE 'R4081-AGRMNT'.
               10  DBLINK-R4083-PO-HDR      PIC X(16)
                       VALUE 'R4083-PO-HDR'.
               10  DBLINK-R4084-PO-CLASS    PIC X(16)
                       VALUE 'R4084-PO-CLASS'.
               10  DBLINK-R4085-PO-DTL      PIC X(16)
                       VALUE 'R4085-PO-DTL'.
               10  DBLINK-R4088-BID         PIC X(16)
                       VALUE 'R4088-BID'.
               10  DBLINK-R4089-BID-DTL     PIC X(16)
                       VALUE 'R4089-BID-DTL'.
               10  DBLINK-R4093-RCVNG-HDR   PIC X(16)
                       VALUE 'R4093-RCVNG-HDR'.
               10  DBLINK-R4096-PO-HDR-SEQ  PIC X(16)
                       VALUE 'R4096-PO-HDR-SEQ'.
               10  DBLINK-R4099-RETURNS     PIC X(16)
                       VALUE 'R4099-RETURNS'.
               10  DBLINK-R4104-VENDOR-CMD  PIC X(16)
                       VALUE 'R4104-VENDOR-CMD'.
               10  DBLINK-R4106-AUTO-JRNL   PIC X(16)
                       VALUE 'R4106-AUTO-JRNL'.
               10  DBLINK-R4120-TXT-HDR     PIC X(16)
                       VALUE 'R4120-TXT-HDR'.
               10  DBLINK-R4150-INV-HDR     PIC X(16)
                       VALUE 'R4150-INV-HDR'.
               10  DBLINK-R4151-INV-DTL     PIC X(16)
                       VALUE 'R4151-INV-DTL'.
               10  DBLINK-R4157-CHK-RQST-H  PIC X(16)
                       VALUE 'R4157-CHK-RQST-H'.
               10  DBLINK-R4158-CHK-HDR     PIC X(16)
                       VALUE 'R4158-CHK-HDR'.
               10  DBLINK-R4161-DSCNT-TBLE  PIC X(16)
                       VALUE 'R4161-DSCNT-TBLE'.
               10  DBLINK-R4163-RSBLE-INV   PIC X(16)
                       VALUE 'R4163-RSBLE-INV'.
               10  DBLINK-R4166-VNDR-TYPE   PIC X(16)
                       VALUE 'R4166-VNDR-TYPE'.
               10  DBLINK-R4168-TAX-RATES   PIC X(16)
                       VALUE 'R4168-TAX-RATES'.
               10  DBLINK-R4174-TOF-HDR     PIC X(16)
                       VALUE 'R4174-TOF-HDR'.
               10  DBLINK-R4180-RULE-CLASS  PIC X(16)
                       VALUE 'R4180-RULE-CLASS'.
               10  DBLINK-R4181-RULE-EFCTV  PIC X(16)
                       VALUE 'R4181-RULE-EFCTV'.
               10  DBLINK-R4183-ENCMBR-YRS  PIC X(16)
                       VALUE 'R4183-ENCMBR-YRS'.
               10  DBLINK-R4187-G-FOAPAL    PIC X(16)
                       VALUE 'R4187-G-FOAPAL'.
               10  DBLINK-R4188-TRAN-HIST   PIC X(16)
                       VALUE 'R4188-TRAN-HIST'.
               10  DBLINK-R4190-ENCMBR-DTL  PIC X(16)
                       VALUE 'R4190-ENCMBR-DTL'.
               10  DBLINK-R4191-ENCMBR-HDR  PIC X(16)
                       VALUE 'R4191-ENCMBR-HDR'.
               10  DBLINK-R4192-USER-PRFL   PIC X(16)
                       VALUE 'R4192-USER-PRFL'.
               10  DBLINK-R4197-GNRL-LDGR   PIC X(16)
                       VALUE 'R4197-GNRL-LDGR'.
               10  DBLINK-R4199-ACCT-LDGR   PIC X(16)
                       VALUE 'R4199-ACCT-LDGR'.
               10  DBLINK-R4203-DOCUMENT    PIC X(16)
                       VALUE 'R4203-DOCUMENT'.
               10  DBLINK-R4204-APRVL-J     PIC X(16)
                       VALUE 'R4204-APRVL-J'.
               10  DBLINK-R4205-APRVL-LVL   PIC X(16)
                       VALUE 'R4205-APRVL-LVL'.
               10  DBLINK-R4209-CLAUSE      PIC X(16)
                       VALUE 'R4209-CLAUSE'.
               10  DBLINK-R4212-APRVL-HDR   PIC X(16)
                       VALUE 'R4212-APRVL-HDR'.
               10  DBLINK-R4215-APRV-TMPLT  PIC X(16)
                       VALUE 'R4215-APRV-TMPLT'.
               10  DBLINK-R4224-DLVRY-HDR   PIC X(16)
                       VALUE 'R4224-DLVRY-HDR'.
               10  DBLINK-R4226-EXPR-VNDR   PIC X(16)
                       VALUE 'R4226-EXPR-VNDR'.
               10  DBLINK-R4228-FILE-CNTL   PIC X(16)
                       VALUE 'R4228-FILE-CNTL'.
               10  DBLINK-R4229-RLSE-HDR    PIC X(16)
                       VALUE 'R4229-RLSE-HDR'.
               10  DBLINK-R4230-RLSE-DTL    PIC X(16)
                       VALUE 'R4230-RLSE-DTL'.
               10  DBLINK-R4232-AP-TRANS    PIC X(16)
                       VALUE 'R4232-AP-TRANS'.
               10  DBLINK-R4300-AST         PIC X(16)
                       VALUE 'R4300-AST'.
               10  DBLINK-R4400-TRVL        PIC X(16)
                       VALUE 'R4400-TRVL'.
               10  DBLINK-R4401-EVENT       PIC X(16)
                       VALUE 'R4401-EVENT'.
               10  DBLINK-R4402-TRIP        PIC X(16)
                       VALUE 'R4402-TRIP'.
               10  DBLINK-R4405-EXPNS       PIC X(16)
                       VALUE 'R4405-EXPNS'.
               10  DBLINK-R4406-RECON       PIC X(16)
                       VALUE 'R4406-RECON'.
               10  DBLINK-R4410-TRVL-INV    PIC X(16)
                       VALUE 'R4410-TRVL-INV'.
               10  DBLINK-R4411-INV-ACCT    PIC X(16)
                       VALUE 'R4411-INV-ACCT'.
               10  DBLINK-R6000-SYS         PIC X(16)
                       VALUE 'R6000-SYS'.
               10  DBLINK-R6001-UNVRS       PIC X(16)
                       VALUE 'R6001-UNVRS'.
               10  DBLINK-R6117-PRSN        PIC X(16)
                       VALUE 'R6117-PRSN'.
               10  DBLINK-R6151-STATE       PIC X(16)
                       VALUE 'R6151-STATE'.
               10  DBLINK-R6152-ZIP         PIC X(16)
                       VALUE 'R6152-ZIP'.
               10  DBLINK-R6153-COUNTRY     PIC X(16)
                       VALUE 'R6153-COUNTRY'.
               10  DBLINK-R6200-ACH-DATA    PIC X(16)
                       VALUE 'R6200-ACH-DATA'.
               10  DBLINK-R6257             PIC X(16)
                       VALUE 'R6257'.
               10  DBLINK-R6258             PIC X(16)
                       VALUE 'R6258'.
               10  DBLINK-R6259             PIC X(16)
                       VALUE 'R6259'.
               10  DBLINK-R6260             PIC X(16)
                       VALUE 'R6260'.
               10  DBLINK-R6268             PIC X(16)
                       VALUE 'R6268'.
               10  DBLINK-R6270             PIC X(16)
                       VALUE 'R6270'.
               10  DBLINK-R6273             PIC X(16)
                       VALUE 'R6273'.
               10  DBLINK-R6311-ENTY        PIC X(16)
                       VALUE 'R6311-ENTY'.
               10  DBLINK-R6313-PRSN-CHG    PIC X(16)
                       VALUE 'R6313-PRSN-CHG'.
               10  DBLINK-R6353-ENTY-CHG    PIC X(16)
                       VALUE 'R6353-ENTY-CHG'.
               10  DBLINK-R6600-TABL-HDR    PIC X(16)
                       VALUE 'R6600-TABL-HDR'.
               10  DBLINK-R6605             PIC X(16)
                       VALUE 'R6605'.
               10  DBLINK-R6606             PIC X(16)
                       VALUE 'R6606'.
               10  DBLINK-R8001             PIC X(16)
                       VALUE 'R8001'.
               10  DBLINK-R8002             PIC X(16)
                       VALUE 'R8002'.
               10  DBLINK-R8003             PIC X(16)
                       VALUE 'R8003'.
               10  DBLINK-R8005             PIC X(16)
                       VALUE 'R8005'.
               10  DBLINK-R8007             PIC X(16)
                       VALUE 'R8007'.
               10  DBLINK-R8008             PIC X(16)
                       VALUE 'R8008'.
               10  DBLINK-R8009             PIC X(16)
                       VALUE 'R8009'.
               10  DBLINK-R8010             PIC X(16)
                       VALUE 'R8010'.
               10  DBLINK-R8013             PIC X(16)
                       VALUE 'R8013'.
               10  DBLINK-R8020             PIC X(16)
                       VALUE 'R8020'.
               10  DBLINK-R8030             PIC X(16)
                       VALUE 'R8030'.
               10  DBLINK-R8040             PIC X(16)
                       VALUE 'R8040'.
               10  DBLINK-R8044             PIC X(16)
                       VALUE 'R8044'.
               10  DBLINK-R8050             PIC X(16)
                       VALUE 'R8050'.
               10  DBLINK-R8051             PIC X(16)
                       VALUE 'R8051'.
               10  DBLINK-R8052             PIC X(16)
                       VALUE 'R8052'.
           05  DBLINK-SET-NAMES.
               10  S-4401-4411              PIC X(16)
                       VALUE 'S-4401-4411'.
               10  S-4410-4411              PIC X(16)
                       VALUE 'S-4410-4411'.
           05  DBLINK-AREA-NAMES.
               10  F-FUND                   PIC X(16)
                       VALUE 'F-FUND'.
               10  F-TRAN-FUND              PIC X(16)
                       VALUE 'F-TRAN-FUND'.
               10  F-INDX-TOF-HDR           PIC X(16)
                       VALUE 'F-INDX-TOF-HDR'.
               10  F-RPT                    PIC X(16)
                       VALUE 'F-RPT'.
               10  F-ACTI                   PIC X(16)
                       VALUE 'F-ACTI'.
               10  F-SYSDAT                 PIC X(16)
                       VALUE 'F-SYSDAT'.
               10  F-ENTY                   PIC X(16)
                       VALUE 'F-ENTY'.
               10  F-RULE                   PIC X(16)
                       VALUE 'F-RULE'.
               10  F-PROG                   PIC X(16)
                       VALUE 'F-PROG'.
               10  F-CTRL                   PIC X(16)
                       VALUE 'F-CTRL'.
               10  F-ACCT                   PIC X(16)
                       VALUE 'F-ACCT'.
               10  F-USER-DEFINED           PIC X(16)
                       VALUE 'F-USER-DEFINED'.
               10  F-ORGN                   PIC X(16)
                       VALUE 'F-ORGN'.
               10  F-COST-SHARE             PIC X(16)
                       VALUE 'F-COST-SHARE'.
               10  F-INDRT-COST             PIC X(16)
                       VALUE 'F-INDRT-COST'.
               10  F-BATCH                  PIC X(16)
                       VALUE 'F-BATCH'.
               10  F-JRNL                   PIC X(16)
                       VALUE 'F-JRNL'.
               10  F-BUYER                  PIC X(16)
                       VALUE 'F-BUYER'.
               10  F-RQST                   PIC X(16)
                       VALUE 'F-RQST'.
               10  F-PRCHS                  PIC X(16)
                       VALUE 'F-PRCHS'.
               10  F-TABLE                  PIC X(16)
                       VALUE 'F-TABLE'.
               10  F-VENDOR                 PIC X(16)
                       VALUE 'F-VENDOR'.
               10  F-INVOICE                PIC X(16)
                       VALUE 'F-INVOICE'.
               10  F-AST                    PIC X(16)
                       VALUE 'F-AST'.
               10  F-INDX-AST-CMPNT         PIC X(16)
                       VALUE 'F-INDX-AST-CMPNT'.
               10  F-INDX-AST-ASTT          PIC X(16)
                       VALUE 'F-INDX-AST-ASTT'.
               10  F-INDX-AST-DSPL          PIC X(16)
                       VALUE 'F-INDX-AST-DSPL'.
               10  F-INDX-AST-CMDTY         PIC X(16)
                       VALUE 'F-INDX-AST-CMDTY'.
               10  F-INDX-AST-TAG           PIC X(16)
                       VALUE 'F-INDX-AST-TAG'.
               10  F-INDX-UNPOST            PIC X(16)
                       VALUE 'F-INDX-UNPOST'.
               10  F-INDX-RQST              PIC X(16)
                       VALUE 'F-INDX-RQST'.
               10  F-INDX-CLASS             PIC X(16)
                       VALUE 'F-INDX-CLASS'.
               10  F-INDX-SHIP              PIC X(16)
                       VALUE 'F-INDX-SHIP'.
               10  F-INDX-BUYER             PIC X(16)
                       VALUE 'F-INDX-BUYER'.
               10  F-INDX-PO-PRINT          PIC X(16)
                       VALUE 'F-INDX-PO-PRINT'.
               10  F-INDX-CMDTY             PIC X(16)
                       VALUE 'F-INDX-CMDTY'.
               10  F-INDX-PO                PIC X(16)
                       VALUE 'F-INDX-PO'.
               10  F-INDX-UNIT-MEA          PIC X(16)
                       VALUE 'F-INDX-UNIT-MEA'.
               10  F-INDX-BID-DTL           PIC X(16)
                       VALUE 'F-INDX-BID-DTL'.
               10  F-INDX-RTRN              PIC X(16)
                       VALUE 'F-INDX-RTRN'.
               10  F-INDX-PO-DTL            PIC X(16)
                       VALUE 'F-INDX-PO-DTL'.
               10  F-INDX-AGRMNT            PIC X(16)
                       VALUE 'F-INDX-AGRMNT'.
               10  F-INDX-RCVNG             PIC X(16)
                       VALUE 'F-INDX-RCVNG'.
               10  F-INDX-DLVRY             PIC X(16)
                       VALUE 'F-INDX-DLVRY'.
               10  F-INDX-TRNST             PIC X(16)
                       VALUE 'F-INDX-TRNST'.
               10  F-INDX-PAY               PIC X(16)
                       VALUE 'F-INDX-PAY'.
               10  F-INDX-REAS              PIC X(16)
                       VALUE 'F-INDX-REAS'.
               10  F-INDX-UNAPP             PIC X(16)
                       VALUE 'F-INDX-UNAPP'.
               10  F-INDX-CLAUSE            PIC X(16)
                       VALUE 'F-INDX-CLAUSE'.
               10  F-INDX-SEQ-NMBR          PIC X(16)
                       VALUE 'F-INDX-SEQ-NMBR'.
               10  F-INDX-DCMNT             PIC X(16)
                       VALUE 'F-INDX-DCMNT'.
               10  F-INDX-EQUIV             PIC X(16)
                       VALUE 'F-INDX-EQUIV'.
               10  F-INDX-UNAPRVD           PIC X(16)
                       VALUE 'F-INDX-UNAPRVD'.
               10  F-INDX-TAX               PIC X(16)
                       VALUE 'F-INDX-TAX'.
               10  F-INDX-VNDR              PIC X(16)
                       VALUE 'F-INDX-VNDR'.
               10  F-INDX-INV               PIC X(16)
                       VALUE 'F-INDX-INV'.
               10  F-INDX-DSCNT             PIC X(16)
                       VALUE 'F-INDX-DSCNT'.
               10  F-INDX-VNDR-TYPE         PIC X(16)
                       VALUE 'F-INDX-VNDR-TYPE'.
               10  F-INDX-INCM-TYPE         PIC X(16)
                       VALUE 'F-INDX-INCM-TYPE'.
               10  F-INDX-RCNCL             PIC X(16)
                       VALUE 'F-INDX-RCNCL'.
               10  F-INDX-ADJMT             PIC X(16)
                       VALUE 'F-INDX-ADJMT'.
               10  F-INDX-CHECK             PIC X(16)
                       VALUE 'F-INDX-CHECK'.
               10  F-INDX-SPCL-MTHD         PIC X(16)
                       VALUE 'F-INDX-SPCL-MTHD'.
               10  F-INDX-OPEN              PIC X(16)
                       VALUE 'F-INDX-OPEN'.
               10  F-INDX-CRDT-MEMO         PIC X(16)
                       VALUE 'F-INDX-CRDT-MEMO'.
               10  F-LDGRCNTL               PIC X(16)
                       VALUE 'F-LDGRCNTL'.
               10  F-INDX-SUBDCMNT          PIC X(16)
                       VALUE 'F-INDX-SUBDCMNT'.
               10  F-INDX-USER-PRFL         PIC X(16)
                       VALUE 'F-INDX-USER-PRFL'.
               10  F-INDX-BDGT-CTRL         PIC X(16)
                       VALUE 'F-INDX-BDGT-CTRL'.
               10  F-INDX-FNDT              PIC X(16)
                       VALUE 'F-INDX-FNDT'.
               10  F-INDX-FUND              PIC X(16)
                       VALUE 'F-INDX-FUND'.
               10  F-INDX-FNCL-MGR          PIC X(16)
                       VALUE 'F-INDX-FNCL-MGR'.
               10  F-INDX-PAY-MTHD          PIC X(16)
                       VALUE 'F-INDX-PAY-MTHD'.
               10  F-INDX-AGNC              PIC X(16)
                       VALUE 'F-INDX-AGNC'.
               10  F-INDX-MGR-RQST          PIC X(16)
                       VALUE 'F-INDX-MGR-RQST'.
               10  F-INDX-RPT               PIC X(16)
                       VALUE 'F-INDX-RPT'.
               10  F-INDX-ACTI              PIC X(16)
                       VALUE 'F-INDX-ACTI'.
               10  F-INDX-SYSDAT            PIC X(16)
                       VALUE 'F-INDX-SYSDAT'.
               10  F-INDX-ACTV              PIC X(16)
                       VALUE 'F-INDX-ACTV'.
               10  F-INDX-INTR-ENTY         PIC X(16)
                       VALUE 'F-INDX-INTR-ENTY'.
               10  F-INDX-XTRN-TRAN         PIC X(16)
                       VALUE 'F-INDX-XTRN-TRAN'.
               10  F-INDX-XTRN-ENTY         PIC X(16)
                       VALUE 'F-INDX-XTRN-ENTY'.
               10  F-INDX-RULE-CLSS         PIC X(16)
                       VALUE 'F-INDX-RULE-CLSS'.
               10  F-INDX-PROG              PIC X(16)
                       VALUE 'F-INDX-PROG'.
               10  F-INDX-FSCL              PIC X(16)
                       VALUE 'F-INDX-FSCL'.
               10  F-INDX-COA               PIC X(16)
                       VALUE 'F-INDX-COA'.
               10  F-INDX-ACCT              PIC X(16)
                       VALUE 'F-INDX-ACCT'.
               10  F-INDX-ACTT              PIC X(16)
                       VALUE 'F-INDX-ACTT'.
               10  F-INDX-DATA-CODE         PIC X(16)
                       VALUE 'F-INDX-DATA-CODE'.
               10  F-INDX-BANK-NAME         PIC X(16)
                       VALUE 'F-INDX-BANK-NAME'.
               10  F-INDX-BANK-CODE         PIC X(16)
                       VALUE 'F-INDX-BANK-CODE'.
               10  F-INDX-ORGN              PIC X(16)
                       VALUE 'F-INDX-ORGN'.
               10  F-INDX-CS                PIC X(16)
                       VALUE 'F-INDX-CS'.
               10  F-INDX-LCTN              PIC X(16)
                       VALUE 'F-INDX-LCTN'.
               10  F-INDX-IC                PIC X(16)
                       VALUE 'F-INDX-IC'.
               10  F-APPROVAL               PIC X(16)
                       VALUE 'F-APPROVAL'.
               10  F-INDX-BACKO             PIC X(16)
                       VALUE 'F-INDX-BACKO'.
               10  F-INDX-TRVL              PIC X(16)
                       VALUE 'F-INDX-TRVL'.
               10  F-TRVL                   PIC X(16)
                       VALUE 'F-TRVL'.
               10  F-PRFL                   PIC X(16)
                       VALUE 'F-PRFL'.
               10  F-INDX-TA-INV            PIC X(16)
                       VALUE 'F-INDX-TA-INV'.
               10  F-BUYERI                 PIC X(16)
                       VALUE 'F-BUYERI'.
               10  F-SYSDATI                PIC X(16)
                       VALUE 'F-SYSDATI'.
               10  F-JRNLI                  PIC X(16)
                       VALUE 'F-JRNLI'.
               10  F-VENDORI                PIC X(16)
                       VALUE 'F-VENDORI'.
               10  F-INDX-ROUTE             PIC X(16)
                       VALUE 'F-INDX-ROUTE'.
               10  F-INDX-ENCMBRNC          PIC X(16)
                       VALUE 'F-INDX-ENCMBRNC'.
               10  F-INDX-FOAP              PIC X(16)
                       VALUE 'F-INDX-FOAP'.
               10  F-INDX-UPPER             PIC X(16)
                       VALUE 'F-INDX-UPPER'.
               10  F-INDX-OL                PIC X(16)
                       VALUE 'F-INDX-OL'.
               10  F-INDX-JRNL              PIC X(16)
                       VALUE 'F-INDX-JRNL'.
               10  F-INDX-GL                PIC X(16)
                       VALUE 'F-INDX-GL'.
               10  F-INDX-AUTO              PIC X(16)
                       VALUE 'F-INDX-AUTO'.
               10  F-TRANSACTION            PIC X(16)
                       VALUE 'F-TRANSACTION'.
               10  F-CHECKS                 PIC X(16)
                       VALUE 'F-CHECKS'.
               10  F-INDX-RQSTR             PIC X(16)
                       VALUE 'F-INDX-RQSTR'.
               10  F-INDX-CHK-DATE          PIC X(16)
                       VALUE 'F-INDX-CHK-DATE'.
               10  F-INDX-CHK-NMBR          PIC X(16)
                       VALUE 'F-INDX-CHK-NMBR'.
               10  F-INDX-RC                PIC X(16)
                       VALUE 'F-INDX-RC'.
               10  F-INDX-CHK-DTL           PIC X(16)
                       VALUE 'F-INDX-CHK-DTL'.
               10  F-INDX-CHK-PARM          PIC X(16)
                       VALUE 'F-INDX-CHK-PARM'.
               10  F-INDX-CHK-PRNTR         PIC X(16)
                       VALUE 'F-INDX-CHK-PRNTR'.
               10  F-INDX-NAME-UP           PIC X(16)
                       VALUE 'F-INDX-NAME-UP'.
               10  F-INDX-RCVNG-REF         PIC X(16)
                       VALUE 'F-INDX-RCVNG-REF'.
               10  F-INDX-SCTY-NAME         PIC X(16)
                       VALUE 'F-INDX-SCTY-NAME'.
               10  F-INDX-RTRN-REF          PIC X(16)
                       VALUE 'F-INDX-RTRN-REF'.
               10  F-TEXT                   PIC X(16)
                       VALUE 'F-TEXT'.
               10  F-INDX-BID               PIC X(16)
                       VALUE 'F-INDX-BID'.
               10  F-BATCHX                 PIC X(16)
                       VALUE 'F-BATCHX'.
               10  F-INDX-BATCH-NO          PIC X(16)
                       VALUE 'F-INDX-BATCH-NO'.
               10  F-COMM                   PIC X(16)
                       VALUE 'F-COMM'.
               10  F-INDX-COMM-LOG          PIC X(16)
                       VALUE 'F-INDX-COMM-LOG'.
               10  F-INDX-COMM-PARA         PIC X(16)
                       VALUE 'F-INDX-COMM-PARA'.
               10  F-INDX-COMM-PLAN         PIC X(16)
                       VALUE 'F-INDX-COMM-PLAN'.
               10  F-INDX-COMM-TYPE         PIC X(16)
                       VALUE 'F-INDX-COMM-TYPE'.
               10  F-INDX-COMM-VIEW         PIC X(16)
                       VALUE 'F-INDX-COMM-VIEW'.
               10  F-INDX-PLAN-TEXT         PIC X(16)
                       VALUE 'F-INDX-PLAN-TEXT'.
               10  F-INDX-ENTY-ID           PIC X(16)
                       VALUE 'F-INDX-ENTY-ID'.
               10  F-INDX-ENTY              PIC X(16)
                       VALUE 'F-INDX-ENTY'.
               10  F-INDX-ENTY-NAME         PIC X(16)
                       VALUE 'F-INDX-ENTY-NAME'.
               10  F-INDX-ENTY-DATA         PIC X(16)
                       VALUE 'F-INDX-ENTY-DATA'.
               10  F-ENTYX                  PIC X(16)
                       VALUE 'F-ENTYX'.
               10  F-GEO                    PIC X(16)
                       VALUE 'F-GEO'.
               10  F-INDX-ADR-TYPE          PIC X(16)
                       VALUE 'F-INDX-ADR-TYPE'.
               10  F-INDX-FICE-CODE         PIC X(16)
                       VALUE 'F-INDX-FICE-CODE'.
               10  F-MAP                    PIC X(16)
                       VALUE 'F-MAP'.
               10  F-INDX-8022              PIC X(16)
                       VALUE 'F-INDX-8022'.
               10  F-OS                     PIC X(16)
                       VALUE 'F-OS'.
               10  F-PRSN                   PIC X(16)
                       VALUE 'F-PRSN'.
               10  F-INDX-PRSN-DATA         PIC X(16)
                       VALUE 'F-INDX-PRSN-DATA'.
               10  F-INDX-PRSN-ID           PIC X(16)
                       VALUE 'F-INDX-PRSN-ID'.
               10  F-INDX-PRSN-NAME         PIC X(16)
                       VALUE 'F-INDX-PRSN-NAME'.
               10  F-PROFILE                PIC X(16)
                       VALUE 'F-PROFILE'.
               10  F-INDX-BTCH-ELEM         PIC X(16)
                       VALUE 'F-INDX-BTCH-ELEM'.
               10  F-INDX-CONT-SCRN         PIC X(16)
                       VALUE 'F-INDX-CONT-SCRN'.
               10  F-INDX-DLG-CODE          PIC X(16)
                       VALUE 'F-INDX-DLG-CODE'.
               10  F-INDX-ELMT-CODE         PIC X(16)
                       VALUE 'F-INDX-ELMT-CODE'.
               10  F-INDX-LOG-HDR           PIC X(16)
                       VALUE 'F-INDX-LOG-HDR'.
               10  F-INDX-MDL-CODE          PIC X(16)
                       VALUE 'F-INDX-MDL-CODE'.
               10  F-INDX-NVG-PRFL          PIC X(16)
                       VALUE 'F-INDX-NVG-PRFL'.
               10  F-INDX-PRFL-CODE         PIC X(16)
                       VALUE 'F-INDX-PRFL-CODE'.
               10  F-INDX-SCTY-PRFL         PIC X(16)
                       VALUE 'F-INDX-SCTY-PRFL'.
               10  F-INDX-SCTY-UNIT         PIC X(16)
                       VALUE 'F-INDX-SCTY-UNIT'.
               10  F-INDX-UNIT-TMPL         PIC X(16)
                       VALUE 'F-INDX-UNIT-TMPL'.
               10  F-INDX-USER-ID           PIC X(16)
                       VALUE 'F-INDX-USER-ID'.
               10  F-INDX-SOC-SCRTY         PIC X(16)
                       VALUE 'F-INDX-SOC-SCRTY'.
               10  F-TABLEX                 PIC X(16)
                       VALUE 'F-TABLEX'.
               10  F-INDX-ENTY-ADR1         PIC X(16)
                       VALUE 'F-INDX-ENTY-ADR1'.
               10  F-INDX-PRSN-ADR1         PIC X(16)
                       VALUE 'F-INDX-PRSN-ADR1'.
               10  F-INDX-REG-DATE          PIC X(16)
                       VALUE 'F-INDX-REG-DATE'.
               10  F-INDX-DOC               PIC X(16)
                       VALUE 'F-INDX-DOC'.
               10  F-INDX-INV-PYMT          PIC X(16)
                       VALUE 'F-INDX-INV-PYMT'.
               10  F-INDX-APRVL             PIC X(16)
                       VALUE 'F-INDX-APRVL'.
               10  F-INDX-TRVL-NAME         PIC X(16)
                       VALUE 'F-INDX-TRVL-NAME'.
               10  F-INDX-BNK-NAME          PIC X(16)
                       VALUE 'F-INDX-BNK-NAME'.
               10  F-INDX-AGNT-NAME         PIC X(16)
                       VALUE 'F-INDX-AGNT-NAME'.
               10  F-INDX-BUYR-NAME         PIC X(16)
                       VALUE 'F-INDX-BUYR-NAME'.
               10  F-INDX-VNDR-NAME         PIC X(16)
                       VALUE 'F-INDX-VNDR-NAME'.
               10  F-INDX-CUST-NAME         PIC X(16)
                       VALUE 'F-INDX-CUST-NAME'.
               10  F-INDX-FNCL-NAME         PIC X(16)
                       VALUE 'F-INDX-FNCL-NAME'.
               10  F-EXPR-VENDOR            PIC X(16)
                       VALUE 'F-EXPR-VENDOR'.
               10  F-EXPR-FILE              PIC X(16)
                       VALUE 'F-EXPR-FILE'.
               10  F-EXPR-RLSE-HDR          PIC X(16)
                       VALUE 'F-EXPR-RLSE-HDR'.
               10  F-EXPR-RLSE-DTL          PIC X(16)
                       VALUE 'F-EXPR-RLSE-DTL'.
               10  F-EXPR-RLSE-EQP          PIC X(16)
                       VALUE 'F-EXPR-RLSE-EQP'.
               10  F-EXPR-AP-TRANS          PIC X(16)
                       VALUE 'F-EXPR-AP-TRANS'.
               10  F-INDX-EXPR-VNDR         PIC X(16)
                       VALUE 'F-INDX-EXPR-VNDR'.
               10  F-INDX-EXPR-FILE         PIC X(16)
                       VALUE 'F-INDX-EXPR-FILE'.
               10  F-INDX-EXPR-RLSE         PIC X(16)
                       VALUE 'F-INDX-EXPR-RLSE'.
               10  F-INDX-EXPR-ACCT         PIC X(16)
                       VALUE 'F-INDX-EXPR-ACCT'.
               10  F-INDX-EXPR-AP           PIC X(16)
                       VALUE 'F-INDX-EXPR-AP'.
               10  F-INDX-EXPR-KEY          PIC X(16)
                       VALUE 'F-INDX-EXPR-KEY'.
               10  F-TRANI                  PIC X(16)
                       VALUE 'F-TRANI'.
               10  F-ENCMBRNC               PIC X(16)
                       VALUE 'F-ENCMBRNC'.
               10  F-SCTY                   PIC X(16)
                       VALUE 'F-SCTY'.
               10  F-ACH                    PIC X(16)
                       VALUE 'F-ACH'.
               10  F-INDX-ACH               PIC X(16)
                       VALUE 'F-INDX-ACH'.
               10  F-FAX                    PIC X(16)
                       VALUE 'F-FAX'.
               10  F-INDX-FAX-NMBR          PIC X(16)
                       VALUE 'F-INDX-FAX-NMBR'.
               10  F-INDX-FAX-FLAG          PIC X(16)
                       VALUE 'F-INDX-FAX-FLAG'.
               10  F-APRVL-TRANS            PIC X(16)
                       VALUE 'F-APRVL-TRANS'.
               10  F-INDX-APRVL-ID          PIC X(16)
                       VALUE 'F-INDX-APRVL-ID'.
               10  F-VALID-FOAP             PIC X(16)
                       VALUE 'F-VALID-FOAP'.
               10  F-INDX-FOAP-VAL1         PIC X(16)
                       VALUE 'F-INDX-FOAP-VAL1'.
               10  F-INDX-FAX-KEY           PIC X(16)
                       VALUE 'F-INDX-FAX-KEY'.
           05  DBLINK-RECORD-LOCK-FLAGS.
               10  FILLER                   PIC X(1)        VALUE SPACE.
           05  DBLINK-CURSOR-NAMES.
               10  DBLINK-S-4401-4411-N     PIC X(18)
                       VALUE 'S-4401-4411-N'.
           05  DBLINK-CURSOR-CODES.
               10  DBLINK-S-4401-4411-N-CODE
                                            PIC X(1)        VALUE 'C'.
      /
UCSDX      EXEC SQL
UCSDX          INCLUDE CBRSKEYS
UCSDX      END-EXEC.
      /
      *%-------------------------------------------------------------- *
      *%                                                               *
      *%                  CONTROL AREAS AND VIEWS                      *
      *%                                                               *
      *%-------------------------------------------------------------- *

      *%****************************** *
      *%CONVERT/DB COMMAREA
      *%****************************** *
           EXEC SQL
               INCLUDE SQLCA
           END-EXEC.

      *%****************************** *
      *%EVT_EVENT_V AREAS(HOST VAR INCLUDE)
      *%****************************** *
      *%   EXEC SQL
      *%       INCLUDE CBHV4401
CPYNME     EXEC SQL
CPYNME         INCLUDE HVEVT
CPYNME     END-EXEC.
      *%   END-EXEC.

      *%****************************** *
      *%IVT_INV_ACCT_V AREAS(HOST VAR INCLUDE)
      *%****************************** *
      *%   EXEC SQL
      *%       INCLUDE CBHV4411
CPYNME     EXEC SQL
CPYNME         INCLUDE HVIVT
CPYNME     END-EXEC.
      *%   END-EXEC.

      *%****************************** *
      *%TRI_TRVL_INV_V AREAS(HOST VAR INCLUDE)
      *%****************************** *
      *%   EXEC SQL
      *%       INCLUDE CBHV4410
CPYNME     EXEC SQL
CPYNME         INCLUDE HVTRI
CPYNME     END-EXEC.
      *%   END-EXEC.
       LINKAGE SECTION.
       01  N-BIGBUF.
           03  N-SCRIPT             PIC X(4080).
           03  N-SCRIPT-CHAR-G  REDEFINES N-SCRIPT  .
             05  N-SCRIPT-C         PIC X(1)  OCCURS 4080 TIMES.
           03  N-SCRIPT-240     REDEFINES N-SCRIPT  .
             05  SCRIP01            PIC X(240).
             05  SCRIP02            PIC X(240).
             05  SCRIP03            PIC X(240).
             05  SCRIP04            PIC X(240).
             05  SCRIP05            PIC X(240).
           03  N-SCRIPT-LINE    REDEFINES N-SCRIPT  .
             05  N-LTEXT            PIC X(80)  OCCURS  51 TIMES.
           03  N-SCRIPT-LLINE   REDEFINES N-SCRIPT  .
             05  N-LINE-G           OCCURS  51  TIMES.
               08  N-LTEXT-78         PIC X(78).
               08  N-NEWLINE          PIC X(2).
      *  GOPHER  REQUEST  0/  1/  F/                      *********
           03  N-GOPHER-REQ     REDEFINES N-SCRIPT  .
             05  NSV-TYP            PIC X(2).
             05  NSV-PROGNM         PIC X(7).
             05  NSV-DATAIN         PIC X(128).
      *  MOSAIC TO GOPHER  '0HTTP://MVS.UDEL.EDU:26722/...'  *****
           03  N-HTTP-GOPH-REQ  REDEFINES N-SCRIPT  .
             05  HTTP-TYP           PIC X(6).
             05  HTTP-ADDR          PIC X(21).
             05  HTTP-PROGNM        PIC X(7).
             05  HTTP-DATAIN        PIC X(128).
      *  MOSAIC  'POST /XXX####/.....'                    *********
           03  N-HTTP-POST-REQ  REDEFINES N-SCRIPT  .
             05  HTTP-POST          PIC X(6).
             05  HTTP-POSTP         PIC X(7).
             05  HTTP-POSTPRM       PIC X(128).
      *  MOSAIC  'GET /XXX####/.....'                     *********
           03  N-HTTP-GET-REQ   REDEFINES N-SCRIPT  .
             05  HTTP-GET           PIC X(5).
             05  HTTP-GETP          PIC X(7).
             05  HTTP-GETPRM        PIC X(128).
      *  LOW-VALUES = C NULL -> END OF STRING MARKER      *********
           03  N-FIL5               PIC X(1).
      *
      *  **********************************************************
      *
       01  DATAIN                   PIC X(128).
      *
       01  NATSVAL-PARMS.
           03  N-HPORT              PIC X(5)  VALUE '26722'.
           03  N-FIL1               PIC X(1)  VALUE LOW-VALUES.
           03  N-TPORT              PIC X(2)  VALUE '  '.
           03  N-FIL2               PIC X(1)  VALUE LOW-VALUES.
           03  N-IPADDR             PIC X(20) VALUE '132.239.30.2'.
      *    03  N-IPADDR             PIC X(20) VALUE '128.175.13.24'.
           03  N-FIL3               PIC X(1)  VALUE LOW-VALUES.
           03  N-CTYPE              PIC X(1)  VALUE ' '.
           03  N-FIL4               PIC X(1)  VALUE LOW-VALUES.
       01  NSUB-PARMS.
           03  NS-HPORT        PIC X(5).
           03  NS-FIL1         PIC X(1).
           03  NS-TPORT        PIC X(2).
           03  NS-FIL2         PIC X(1).
           03  NS-IPADDR       PIC X(4).
           03  NS-FIL3         PIC X(1).
           03  NS-CTYPE        PIC X(1).
           03  NS-FIL4         PIC X(1).
           03  NS-HOST         PIC X(20).
           03  XX-NS-HOST REDEFINES NS-HOST.
             05  FILLER        PIC X(13).
             05  NS-HOST-TAB   PIC X(1).
           03  NS-FIL5         PIC X(1).
           03  NS-FILLER       PIC X(4).
           03  NS-FIL6         PIC X(1).
      *
      *****************************************************************
      *

      /
      *%-------------------------------------------------------------- *
      *%                                                               *
      *%                    CURSOR DECLARATIONS                        *
      *%                                                               *
      *%-------------------------------------------------------------- *

      *%****************************** *
      *%CURSOR FOR FORWARD SUBSET OF IVT_INV_ACCT_V
      *%****************************** *
           EXEC SQL
               DECLARE S_4401_4411_N CURSOR WITH HOLD FOR
               SELECT
                  USER_CD
                 ,LAST_ACTVY_DT
                 ,SEQ_NBR
                 ,TRVL_ACCT_DGT_ONE
                 ,TRVL_ACCT_LST_NINE
                 ,FK_EVT_EVENT_NBR
                 ,BILL_TYP_IND
                 ,ACCT_INVD_AMT
                 ,BANK_ACCT_CD
                 ,RULE_CLS_CD
                 ,NSF_OVRDE
                 ,COA_CD
                 ,ACCT_INDX_CD
                 ,FUND_CD
                 ,ORGN_CD
                 ,ACCT_CD
                 ,PRGRM_CD
                 ,ACTVY_CD
                 ,LCTN_CD
                 ,ACCT_ERROR_IND
                 ,FSCL_YR
                 ,PSTNG_PRD
                 ,ACRL_IND
                 ,PAID_IND
                 ,FK_TRI_DOC_NBR
                 ,EVT_SETF
                 ,EVT_SET_TS
               FROM IVT_INV_ACCT_V
               WHERE FK_EVT_EVENT_NBR = :DBLINK-S-4401-4411-01
                 AND EVT_SET_TS < :DBLINK-S-4401-4411-02
                 AND EVT_SETF = :DBLINK-MEMBER
               ORDER BY EVT_SET_TS  DESC
               OPTIMIZE FOR 1 ROW
           END-EXEC.

       PROCEDURE DIVISION  USING
           N-BIGBUF, DATAIN, NSUB-PARMS, NATSVAL-PARMS.
      /
      *%-------------------------------------------------------------- *
      *%                                                               *
      *%              000-SQL-INITIALIZATION ROUTINE                   *
      *%                                                               *
      *%-------------------------------------------------------------- *
       000-SQL-INITIALIZATION.
           MOVE '000-SQL-INITIALIZATION' TO DBLINK-CURR-PARAGRAPH.
           ACCEPT DBLINK-RUN-DATE-2 FROM DATE.
           MOVE DBLINK-RUN-DATE-2-MO TO DBLINK-RUN-DATE-MO.
           MOVE DBLINK-RUN-DATE-2-DY TO DBLINK-RUN-DATE-DY.
           MOVE DBLINK-RUN-DATE-2-YR TO DBLINK-RUN-DATE-YR.
           ACCEPT DBLINK-TIME FROM TIME.
           MOVE DBLINKX-NULL-DB2-DATE-ISO TO DBLINK-DEFAULT-DATE.
           MOVE '0001-01-01' TO DBLINK-LOW-DATE.
           MOVE '9999-12-31' TO DBLINK-HIGH-DATE.
           MOVE DBLINKX-NULL-DB2-TIME-ISO TO DBLINK-DEFAULT-TIME.
           MOVE '00.00.01' TO DBLINK-LOW-TIME.
           MOVE '23.59.59' TO DBLINK-HIGH-TIME.
       000-SQL-INITIALIZATION-EXIT.
           EXIT.

      *
       0000-MAINLINE SECTION.

           MOVE 'UTLS000' TO PROGRAM-NAME.

           DISPLAY ' '.                                                 08670000
           DISPLAY '*** STARTING UTLS000 ***'.                          08680036
           DISPLAY ' '.                                                 08690000
                                                                        08700000
      *%   COPY IDMS SUBSCHEMA-BINDS.
           ACCEPT WS-ACCEPT-DATE FROM DATE.
           MOVE WS-ACCEPT-DATE-YEAR    TO WS-SYSTEM-DATE-YEAR.
           MOVE WS-ACCEPT-DATE-MONTH   TO WS-SYSTEM-DATE-MONTH.
           MOVE WS-ACCEPT-DATE-DAY     TO WS-SYSTEM-DATE-DAY.
           IF WS-ACCEPT-DATE-YEAR GREATER THAN 15
               MOVE 19                 TO WS-SYSTEM-DATE-CENT
           ELSE
               MOVE 20                 TO WS-SYSTEM-DATE-CENT.

      *%   READY                   USAGE-MODE   IS RETRIEVAL.
           MOVE 0001 TO DBLINK-CURR-IO-NUM
           MOVE +0 TO SQLCODE
           MOVE ZERO TO ERROR-STATUS.

           MOVE SPACES TO N-SCRIPT.
           MOVE DATAIN TO DPARM.
           DISPLAY 'PARM = ' DPARM.

           MOVE EVENT-NUMBER       TO EVENT-NMBR-4401.                  09750000
           MOVE '01'               TO UNVRS-CODE-4401.
      *%   OBTAIN CALC R4401-EVENT                                      09770000
           MOVE 0002 TO DBLINK-CURR-IO-NUM
           MOVE DBLINK-OBTAIN TO DBLINK-TYPE-SELECT
           MOVE DBLINK-CALC TO DBLINK-TYPE-GET
           MOVE EVENT-NMBR-4401 OF R4401-EVENT TO EVT-EVENT-NBR
           PERFORM 906-05-R4401-EVENT
              THRU 906-05-R4401-EVENT-EXIT
      *%       ON ANY-ERROR-STATUS
               IF NOT ANY-ERROR-STATUS
                   PERFORM 999-SQL-STATUS
                      THRU 999-SQL-STATUS-EXIT
               ELSE
               NEXT SENTENCE.

           IF ANY-ERROR-STATUS
               DISPLAY 'EVENT NOT FOUND'
               PERFORM 6000-ERROR THRU 6000-EXIT
           ELSE
               DISPLAY '*** EVENT FOUND *'
               PERFORM 2000-MAINLINE
                  THRU 2000-EXIT.

           DISPLAY 'NSCRIPT ' N-SCRIPT.
           PERFORM 0190-DATA THRU 0190-EXIT.
           MOVE  'L'          TO  NS-CTYPE.

      *%   FINISH.
           MOVE 0003 TO DBLINK-CURR-IO-NUM
           MOVE +0 TO SQLCODE
           MOVE ZERO TO ERROR-STATUS
           PERFORM 986-RESET-KEYS
              THRU 986-RESET-KEYS-EXIT
           PERFORM 996-COMMIT
              THRU 996-COMMIT-EXIT
           PERFORM 999-SQL-STATUS
              THRU 999-SQL-STATUS-EXIT.

           DISPLAY ' '.                                                 08670000
           DISPLAY '*** FINISHED UTLS000 ***'.                          08680036
           DISPLAY ' '.                                                 08690000
                                                                        08700000
           PERFORM 9000-END-EXTRACT  THRU
                   9000-END-EXTRACT-EXIT.
           GOBACK.

       2000-MAINLINE.

      *%   OBTAIN FIRST R4411-INV-ACCT WITHIN S-4401-4411
           MOVE 0004 TO DBLINK-CURR-IO-NUM
           MOVE DBLINK-OBTAIN TO DBLINK-TYPE-SELECT
           MOVE DBLINK-FIRST TO DBLINK-TYPE-GET
           PERFORM 906-00N-S-4401-4411
              THRU 906-00N-S-4401-4411-EXIT
      *%       ON DB-END-OF-SET
               IF NOT DB-END-OF-SET
                   PERFORM 999-SQL-STATUS
                      THRU 999-SQL-STATUS-EXIT
               ELSE
               NEXT SENTENCE.
           PERFORM 3000-GET-INVOICES THRU 3000-EXIT
               UNTIL DB-END-OF-SET.

       2000-EXIT.
           EXIT.

       3000-GET-INVOICES.

      *%   OBTAIN OWNER WITHIN S-4410-4411.
           MOVE 0005 TO DBLINK-CURR-IO-NUM
           MOVE DBLINK-OBTAIN TO DBLINK-TYPE-SELECT
           MOVE DBLINK-OWNER TO DBLINK-TYPE-GET
           PERFORM 906-04-S-4410-4411
              THRU 906-04-S-4410-4411-EXIT
           PERFORM 999-SQL-STATUS
              THRU 999-SQL-STATUS-EXIT.
           DISPLAY 'BILL TYPE = ' BILL-TYPE-IND-4410.
           IF BILL-TYPE-IND-4410 = 'H' OR 'O' OR 'A'
               PERFORM 5000-WRITE-INVOICE THRU 5000-EXIT.

      *%   OBTAIN NEXT R4411-INV-ACCT WITHIN S-4401-4411
           MOVE 0006 TO DBLINK-CURR-IO-NUM
           MOVE DBLINK-OBTAIN TO DBLINK-TYPE-SELECT
           MOVE DBLINK-NEXT TO DBLINK-TYPE-GET
           PERFORM 906-00N-S-4401-4411
              THRU 906-00N-S-4401-4411-EXIT
      *%       ON DB-END-OF-SET
               IF NOT DB-END-OF-SET
                   PERFORM 999-SQL-STATUS
                      THRU 999-SQL-STATUS-EXIT
               ELSE
               NEXT SENTENCE.

       3000-EXIT.
           EXIT.

      **********************
       5000-WRITE-INVOICE.
      **********************

           MOVE INV-DATE-4410  TO WS-START-DATE-99.
           MOVE  WS-START-DATE-99           TO  WS-TEST-DATE.
           MOVE  WS-TEST-DATE-MONTH         TO  WS-DISPLAY-DATE-MONTH.
           MOVE  WS-TEST-DATE-YEAR          TO  WS-DISPLAY-DATE-YEAR.
           MOVE  WS-TEST-DATE-DAY           TO  WS-DISPLAY-DATE-DAY.
           MOVE  WS-DISPLAY-DATE      TO  UTLS000O-INV-DATE.
           MOVE  INVD-AMT-4410        TO  UTLS000O-INV-AMT.
           MOVE 'DOCUMENT'             TO UTLS000O-REC-NAME.
           MOVE DCMNT-NMBR-4410      TO UTLS000O-DOCUMENT-NUMBER.
           MOVE BILL-TYPE-IND-4410   TO UTLS000O-BILL-TYPE.
           MOVE UTLS000O-RECORD-TYPE
                                     TO N-LTEXT (TEXT-SUB).
007CGI     PERFORM 7100-WRITE-EXTRACT
007CGI        THRU 7100-EXIT.
           ADD 1 TO TEXT-SUB.


       5000-EXIT.
           EXIT.
      **********************
       6000-ERROR.
      **********************
      *    MOVE LOW-VALUES           TO UTLS000O-VARIABLE-DATA.

           MOVE 'NONE'               TO UTLS000O-DOCUMENT-NUMBER.
           MOVE 'NONE'                 TO UTLS000O-REC-NAME.

           MOVE UTLS000O-RECORD-TYPE
                                     TO N-LTEXT (TEXT-SUB).
           PERFORM 7100-WRITE-EXTRACT
              THRU 7100-EXIT.
           ADD 1 TO TEXT-SUB.

       6000-EXIT.
           EXIT.
      ****************************************************************
      *  THE FOLLOWING PARAGRAPH WILL WRITE EXTRACT RECORDS TO THE
      *  OUTPUT FILE.
      ****************************************************************
       7100-WRITE-EXTRACT.
           DISPLAY '*** WRITING DATA ' N-LTEXT (TEXT-SUB) '***'.

           IF TEXT-SUB > 49
      *        DISPLAY 'ACTUAL CALL TO NATSVAL'
               PERFORM 0190-DATA THRU 0190-EXIT
               MOVE  'M'  TO  N-CTYPE
               MOVE NS-HPORT TO N-HPORT
               MOVE NS-TPORT TO N-TPORT
               MOVE NS-IPADDR TO N-IPADDR
               CALL 'NATSVAL' USING N-HPORT N-TPORT N-IPADDR N-CTYPE
                     N-SCRIPT
      *    DISPLAY 'NSCRIPT ' N-SCRIPT
               MOVE SPACES TO N-SCRIPT
               MOVE 0 TO TEXT-SUB.

       7100-EXIT.
           EXIT.

       0190-DATA.

           MOVE  H-CR              TO  H-EOM1.
           MOVE  H-LF              TO  H-EOM2.
           MOVE  '.'               TO  H-EOM3.
           MOVE  H-CR              TO  H-EOM4.
           MOVE  H-LF              TO  H-EOM5.
           MOVE  H-NULL            TO  H-EOM6.
      *
       0190-EXIT.
           EXIT.
      *
       9000-END-EXTRACT.
           GOBACK.
       9000-END-EXTRACT-EXIT.
           EXIT.
      *

      *************************************************************     28150000
      *COPY IDMS IDMS-STATUS.                                           28160000
      ************************************************************      28170000
       IDMS-ABORT SECTION.                                              28180000
      ************************************************************      28190000
       9901-ABORT.                                                      28200000
      ************************************************************      28210000
                                                                        28220000
           DISPLAY 'ABORTED.'.                                          28230000
                                                                        28281037
      /
      *%-------------------------------------------------------------- *
      *%                                                               *
      *%                   900-START-SUBROUTINES                       *
      *%                                                               *
      *%-------------------------------------------------------------- *
       900-START-SUBROUTINES SECTION.
      *    CONVERT/DB SUBROUTINES FOLLOW
       900-START-SUBROUTINES-EXIT.
           EXIT.

      /
      *%-------------------------------------------------------------- *
      *%                                                               *
      *%                906-00N-S-4401-4411 ROUTINE                    *
      *%                                                               *
      *%-------------------------------------------------------------- *
       906-00N-S-4401-4411.
           MOVE '906-00N-S-4401-4411' TO DBLINK-CURR-PARAGRAPH.
           MOVE ZERO TO ERROR-STATUS.
           MOVE ' ' TO ERROR-AREA.
           MOVE S-4401-4411 TO ERROR-SET.
           MOVE DBLINK-S-4401-4411-N TO DBLINK-CURSOR-NAME-WORK.
           MOVE S-4401-4411 TO DBLINK-SET-NAME-WORK.
           MOVE ' ' TO DBLINK-RECORD-MADE-CURRENT.
           IF DBLINK-S-4401-4411-N-CODE NOT = DBLINK-OPEN
               IF DBLINK-S-4401-4411-KEY = LOW-VALUES
                   MOVE DBLINK-NO-CURRENCY TO ERROR-STATUS
                   MOVE DBLINK-NONE TO DBLINK-TYPE-LOCK
                   GO TO 906-00N-S-4401-4411-EXIT
               END-IF
           END-IF.
           IF DBLINK-TYPE-GET = 'F'
             OR DBLINK-S-4401-4411-KEY-M = LOW-VALUES
               PERFORM 991-CLOSE-CURSORS
                  THRU 991-CLOSE-CURSORS-EXIT
               IF ERROR-STATUS = DBLINK-DB2-ERROR
                   GO TO 906-00N-S-4401-4411-EXIT
               END-IF
           END-IF.
           IF DBLINK-S-4401-4411-KEY-M = LOW-VALUES
             OR DBLINK-TYPE-GET = 'F'
               MOVE DBLINK-HIGH-TIMESTAMP TO DBLINK-S-4401-4411-02
           END-IF.
           IF DBLINK-S-4401-4411-N-CODE NOT = DBLINK-OPEN
               EXEC SQL
                   OPEN S_4401_4411_N
               END-EXEC
               IF SQLCODE NOT = 0
                   MOVE DBLINK-DB2-ERROR TO ERROR-STATUS
                   GO TO 906-00N-S-4401-4411-EXIT
               END-IF
               MOVE DBLINK-OPEN TO DBLINK-S-4401-4411-N-CODE
           END-IF.
           EXEC SQL
               FETCH S_4401_4411_N
               INTO
                  :IVT-USER-CD
                 ,:IVT-LAST-ACTVY-DT
                 ,:IVT-SEQ-NBR
                 ,:IVT-TRVL-ACCT-DGT-ONE
                 ,:IVT-TRVL-ACCT-LST-NINE
                 ,:IVT-FK-EVT-EVENT-NBR
                 ,:IVT-BILL-TYP-IND
                 ,:IVT-ACCT-INVD-AMT
                 ,:IVT-BANK-ACCT-CD
                 ,:IVT-RULE-CLS-CD
                 ,:IVT-NSF-OVRDE
                 ,:IVT-COA-CD
                 ,:IVT-ACCT-INDX-CD
                 ,:IVT-FUND-CD
                 ,:IVT-ORGN-CD
                 ,:IVT-ACCT-CD
                 ,:IVT-PRGRM-CD
                 ,:IVT-ACTVY-CD
                 ,:IVT-LCTN-CD
                 ,:IVT-ACCT-ERROR-IND
                 ,:IVT-FSCL-YR
                 ,:IVT-PSTNG-PRD
                 ,:IVT-ACRL-IND
                 ,:IVT-PAID-IND
                 ,:IVT-FK-TRI-DOC-NBR
                 ,:IVT-EVT-SETF
                 ,:IVT-EVT-SET-TS
           END-EXEC.
           IF SQLCODE = +100
               MOVE DBLINK-END-OF-RCDS TO ERROR-STATUS
               MOVE DBLINK-NONE TO DBLINK-TYPE-LOCK
               PERFORM 991-CLOSE-CURSORS
                  THRU 991-CLOSE-CURSORS-EXIT
               IF ERROR-STATUS = DBLINK-DB2-ERROR
                   GO TO 906-00N-S-4401-4411-EXIT
               END-IF
               PERFORM 985-EOS-S-4401-4411
                  THRU 985-EOS-S-4401-4411-EXIT
               MOVE +100 TO SQLCODE
               GO TO 906-00N-S-4401-4411-EXIT
           END-IF.
           IF SQLCODE NOT = 0
               MOVE DBLINK-DB2-ERROR TO ERROR-STATUS
               GO TO 906-00N-S-4401-4411-EXIT
           END-IF.
           PERFORM 985-CURR-R4411-INV-ACCT
              THRU 985-CURR-R4411-INV-ACCT-EXIT.
           IF ERROR-STATUS = DBLINK-DB2-ERROR
               GO TO 906-00N-S-4401-4411-EXIT
           END-IF.
           IF DBLINK-TYPE-SELECT = 'O'
               PERFORM 975-TO-R4411-INV-ACCT
                  THRU 975-TO-R4411-INV-ACCT-EXIT
           END-IF.
       906-00N-S-4401-4411-EXIT.
           EXIT.
      /
      *%-------------------------------------------------------------- *
      *%                                                               *
      *%                906-04-S-4410-4411 ROUTINE                     *
      *%                                                               *
      *%-------------------------------------------------------------- *
       906-04-S-4410-4411.
           MOVE '906-04-S-4410-4411' TO DBLINK-CURR-PARAGRAPH.
           MOVE 'R4410-TRVL-INV' TO ERROR-RECORD.
           IF DBLINK-S-4410-4411-KEY = LOW-VALUES
               MOVE DBLINK-NO-CURRENCY TO ERROR-STATUS
               GO TO 906-04-S-4410-4411-EXIT
           END-IF.
           MOVE DBLINK-S-4410-4411-01 TO TRI-DOC-NBR.
           PERFORM 906-05-R4410-TRVL-INV
              THRU 906-05-R4410-TRVL-INV-EXIT.
       906-04-S-4410-4411-EXIT.
           EXIT.
      /
      *%-------------------------------------------------------------- *
      *%                                                               *
      *%                906-05-R4401-EVENT ROUTINE                     *
      *%                                                               *
      *%-------------------------------------------------------------- *
       906-05-R4401-EVENT.
           MOVE '906-05-R4401-EVENT' TO DBLINK-CURR-PARAGRAPH.
           MOVE 'R4401-EVENT' TO ERROR-RECORD.
           MOVE ZERO TO ERROR-STATUS.
           EXEC SQL
               SELECT
                  USER_CD
                 ,LAST_ACTVY_DT
                 ,UNVRS_CD
                 ,EVENT_NBR
                 ,EVENT_DESC
                 ,START_DT
                 ,END_DT
                 ,OTHR_DRCT_BILL_IND
                 ,CAR_DRCT_BILL_IND
                 ,HOTL_DRCT_BILL_IND
                 ,MEAL_DRCT_BILL_IND
                 ,AR_DRCT_BILL_IND
                 ,RCNCLTN_DUE_DT
                 ,TOTL_ADVNC_AMT
                 ,DRCT_BILL_AMT
                 ,TOTL_EXPNS_AMT
                 ,ESTMD_EXPNS_AMT
                 ,FK_TVL_IREF_ID
                 ,FK_TVL_ENTPSN_IND
               INTO
                  :EVT-USER-CD
                 ,:EVT-LAST-ACTVY-DT
                 ,:EVT-UNVRS-CD
                 ,:EVT-EVENT-NBR
                 ,:EVT-EVENT-DESC
                 ,:EVT-START-DT
                 ,:EVT-END-DT
                 ,:EVT-OTHR-DRCT-BILL-IND
                 ,:EVT-CAR-DRCT-BILL-IND
                 ,:EVT-HOTL-DRCT-BILL-IND
                 ,:EVT-MEAL-DRCT-BILL-IND
                 ,:EVT-AR-DRCT-BILL-IND
                 ,:EVT-RCNCLTN-DUE-DT
                 ,:EVT-TOTL-ADVNC-AMT
                 ,:EVT-DRCT-BILL-AMT
                 ,:EVT-TOTL-EXPNS-AMT
                 ,:EVT-ESTMD-EXPNS-AMT
                 ,:EVT-FK-TVL-IREF-ID
                 ,:EVT-FK-TVL-ENTPSN-IND
               FROM EVT_EVENT_V
               WHERE EVENT_NBR = :EVT-EVENT-NBR
           END-EXEC.
           IF SQLCODE = +100
               EVALUATE DBLINK-TYPE-GET
                   WHEN DBLINK-CALC
                       MOVE DBLINK-NOT-FOUND TO ERROR-STATUS
                   WHEN DBLINK-CURR
                       MOVE DBLINK-NO-CURRENCY TO ERROR-STATUS
                   WHEN DBLINK-DBKEY
                       MOVE DBLINK-DBKEY-ERROR TO ERROR-STATUS
                   WHEN OTHER
                       MOVE DBLINK-DB2-ERROR TO ERROR-STATUS
               END-EVALUATE
               GO TO 906-05-R4401-EVENT-EXIT
           END-IF.
           IF SQLCODE NOT = 0
               MOVE DBLINK-DB2-ERROR TO ERROR-STATUS
               GO TO 906-05-R4401-EVENT-EXIT
           END-IF.
           MOVE DBLINK-R4401-EVENT TO DBLINK-RECORD-MADE-CURRENT.
           MOVE ' ' TO DBLINK-SET-NAME-WORK.
           MOVE ' ' TO DBLINK-CURSOR-NAME-WORK.
           PERFORM 985-CURR-R4401-EVENT
              THRU 985-CURR-R4401-EVENT-EXIT.
           IF ERROR-STATUS = DBLINK-DB2-ERROR
               GO TO 906-05-R4401-EVENT-EXIT
           END-IF.
           IF DBLINK-TYPE-SELECT = 'O'
               PERFORM 975-TO-R4401-EVENT
                  THRU 975-TO-R4401-EVENT-EXIT
           END-IF.
       906-05-R4401-EVENT-EXIT.
           EXIT.
      /
      *%-------------------------------------------------------------- *
      *%                                                               *
      *%               906-05-R4410-TRVL-INV ROUTINE                   *
      *%                                                               *
      *%-------------------------------------------------------------- *
       906-05-R4410-TRVL-INV.
           MOVE '906-05-R4410-TRVL-INV' TO DBLINK-CURR-PARAGRAPH.
           MOVE 'R4410-TRVL-INV' TO ERROR-RECORD.
           MOVE ZERO TO ERROR-STATUS.
           EXEC SQL
               SELECT
                  USER_CD
                 ,LAST_ACTVY_DT
                 ,UNVRS_CD
                 ,DOC_NBR
                 ,VNDR_INV_NBR
                 ,INV_DT
                 ,PYMT_DUE_DT
                 ,ADR_TYP_CD
                 ,BILL_TYP_IND
                 ,CRDT_MEMO
                 ,BANK_ACCT_CD
                 ,OPEN_PAID_HOLD_IND
                 ,INVD_AMT
                 ,CMPLT_IND
                 ,APRVL_IND
                 ,CNCL_IND
                 ,CNCL_DT
                 ,HDR_ERROR_IND
                 ,HDR_CNTR_DTL
                 ,NSF_OVRDE
                 ,CHECK_GRPNG_IND
                 ,VNDR_ID_DGT_ONE
                 ,VNDR_ID_LST_NINE
                 ,CHECK_CNTR
                 ,VNDR_INV_DT
                 ,AMT_ACTIN_IND
                 ,VDR_SETF1
                 ,FK1_VDR_IREF_ID
                 ,FK1_VDR_ENTPSN_IND
                 ,VDR_SETF2
                 ,FK2_VDR_IREF_ID
                 ,FK2_VDR_ENTPSN_IND
                 ,VDR_SET_TS
               INTO
                  :TRI-USER-CD
                 ,:TRI-LAST-ACTVY-DT
                 ,:TRI-UNVRS-CD
                 ,:TRI-DOC-NBR
                 ,:TRI-VNDR-INV-NBR
                 ,:TRI-INV-DT
                 ,:TRI-PYMT-DUE-DT
                 ,:TRI-ADR-TYP-CD
                 ,:TRI-BILL-TYP-IND
                 ,:TRI-CRDT-MEMO
                 ,:TRI-BANK-ACCT-CD
                 ,:TRI-OPEN-PAID-HOLD-IND
                 ,:TRI-INVD-AMT
                 ,:TRI-CMPLT-IND
                 ,:TRI-APRVL-IND
                 ,:TRI-CNCL-IND
                 ,:TRI-CNCL-DT
                 ,:TRI-HDR-ERROR-IND
                 ,:TRI-HDR-CNTR-DTL
                 ,:TRI-NSF-OVRDE
                 ,:TRI-CHECK-GRPNG-IND
                 ,:TRI-VNDR-ID-DGT-ONE
                 ,:TRI-VNDR-ID-LST-NINE
                 ,:TRI-CHECK-CNTR
                 ,:TRI-VNDR-INV-DT
                 ,:TRI-AMT-ACTIN-IND
                 ,:TRI-VDR-SETF1
                 ,:TRI-FK1-VDR-IREF-ID
                 ,:TRI-FK1-VDR-ENTPSN-IND
                 ,:TRI-VDR-SETF2
                 ,:TRI-FK2-VDR-IREF-ID
                 ,:TRI-FK2-VDR-ENTPSN-IND
                 ,:TRI-VDR-SET-TS
               FROM TRI_TRVL_INV_V
               WHERE DOC_NBR = :TRI-DOC-NBR
           END-EXEC.
           IF SQLCODE = +100
               EVALUATE DBLINK-TYPE-GET
                   WHEN DBLINK-CALC
                       MOVE DBLINK-NOT-FOUND TO ERROR-STATUS
                   WHEN DBLINK-CURR
                       MOVE DBLINK-NO-CURRENCY TO ERROR-STATUS
                   WHEN DBLINK-DBKEY
                       MOVE DBLINK-DBKEY-ERROR TO ERROR-STATUS
                   WHEN OTHER
                       MOVE DBLINK-DB2-ERROR TO ERROR-STATUS
               END-EVALUATE
               GO TO 906-05-R4410-TRVL-INV-EXIT
           END-IF.
           IF SQLCODE NOT = 0
               MOVE DBLINK-DB2-ERROR TO ERROR-STATUS
               GO TO 906-05-R4410-TRVL-INV-EXIT
           END-IF.
           MOVE DBLINK-R4410-TRVL-INV TO DBLINK-RECORD-MADE-CURRENT.
           MOVE ' ' TO DBLINK-SET-NAME-WORK.
           MOVE ' ' TO DBLINK-CURSOR-NAME-WORK.
           PERFORM 985-CURR-R4410-TRVL-INV
              THRU 985-CURR-R4410-TRVL-INV-EXIT.
           IF ERROR-STATUS = DBLINK-DB2-ERROR
               GO TO 906-05-R4410-TRVL-INV-EXIT
           END-IF.
           IF DBLINK-TYPE-SELECT = 'O'
               PERFORM 975-TO-R4410-TRVL-INV
                  THRU 975-TO-R4410-TRVL-INV-EXIT
           END-IF.
       906-05-R4410-TRVL-INV-EXIT.
           EXIT.

      *%****************************** *
      *% 975-TO-R4401-EVENT ROUTINE
      *%****************************** *
      *%   COPY CB754401.
CPYNME     COPY HVIDEVT.

      *%****************************** *
      *% 975-TO-R4411-INV-ACCT ROUTINE
      *%****************************** *
      *%   COPY CB754411.
CPYNME     COPY HVIDIVT.

      *%****************************** *
      *% 975-TO-R4410-TRVL-INV ROUTINE
      *%****************************** *
      *%   COPY CB754410.
CPYNME     COPY HVIDTRI.

      *%****************************** *
      *% 976-FROM-R4401-EVENT ROUTINE
      *%****************************** *
      *%   COPY CB764401.
CPYNME     COPY IDHVEVT.

      *%****************************** *
      *% 976-FROM-R4411-INV-ACCT ROUTINE
      *%****************************** *
      *%   COPY CB764411.
CPYNME     COPY IDHVIVT.

      *%****************************** *
      *% 976-FROM-R4410-TRVL-INV ROUTINE
      *%****************************** *
      *%   COPY CB764410.
CPYNME     COPY IDHVTRI.
      /
      *%-------------------------------------------------------------- *
      *%                                                               *
      *%               985-CURR-R4401-EVENT ROUTINE                    *
      *%                                                               *
      *%-------------------------------------------------------------- *
       985-CURR-R4401-EVENT.
           MOVE '985-CURR-R4401-EVENT' TO DBLINK-CURR-PARAGRAPH.

      *%****************************** *
      *%INITIALIZE DBLINK SUBSCHEMA-CTRL
      *%****************************** *
           MOVE ZERO TO ERROR-STATUS.
           MOVE SPACES TO ERROR-AREA.
           MOVE SPACES TO ERROR-SET.
           MOVE SPACES TO ERROR-RECORD.
           MOVE 'R4401-EVENT' TO RECORD-NAME.
           MOVE 'F-TRVL' TO AREA-NAME.

      *%****************************** *
      *%CLOSE ALL RECORD-RELATED CURSORS
      *%****************************** *
           MOVE DBLINK-R4401-EVENT TO DBLINK-RECORD-MADE-CURRENT.
           MOVE ' ' TO DBLINK-CURSOR-NAME-WORK.
           PERFORM 991-CLOSE-CURSORS
              THRU 991-CLOSE-CURSORS-EXIT.
           IF ERROR-STATUS = DBLINK-DB2-ERROR
               GO TO 985-CURR-R4401-EVENT-EXIT
           END-IF.
           MOVE ' ' TO DBLINK-RECORD-MADE-CURRENT.

      *%****************************** *
      *%SET RECORD KEY
      *%****************************** *
           IF DBLINK-TYPE-GET NOT = DBLINK-CURR
               MOVE EVT-EVENT-NBR TO DBLINK-R4401-EVENT-01
           END-IF.

      *%****************************** *
      *%SET CURRENT OF RUN-UNIT
      *%****************************** *
           MOVE DBLINK-R4401-EVENT TO DBLINK-VIEW-NAME-CURRENT.
           MOVE DBLINK-R4401-EVENT-KEY TO DBLINK-VIEW-200-CURRENT.

      *%****************************** *
      *%SET KEYS FOR SETS WHICH RECORD OWNS
      *%****************************** *

      *%****************************** *
      *%SET S-4401-4411
      *%****************************** *
           MOVE DBLINK-R4401-EVENT-01 TO DBLINK-S-4401-4411-01.
           MOVE LOW-VALUES TO DBLINK-S-4401-4411-KEY-M.

      *%****************************** *
      *%SET KEYS FOR SETS IN WHICH RECORD IS MEMBER
      *%****************************** *
       985-CURR-R4401-EVENT-EXIT.
           EXIT.
      /
      *%-------------------------------------------------------------- *
      *%                                                               *
      *%              985-CURR-R4410-TRVL-INV ROUTINE                  *
      *%                                                               *
      *%-------------------------------------------------------------- *
       985-CURR-R4410-TRVL-INV.
           MOVE '985-CURR-R4410-TRVL-INV' TO DBLINK-CURR-PARAGRAPH.

      *%****************************** *
      *%INITIALIZE DBLINK SUBSCHEMA-CTRL
      *%****************************** *
           MOVE ZERO TO ERROR-STATUS.
           MOVE SPACES TO ERROR-AREA.
           MOVE SPACES TO ERROR-SET.
           MOVE SPACES TO ERROR-RECORD.
           MOVE 'R4410-TRVL-INV' TO RECORD-NAME.
           MOVE 'F-TRVL' TO AREA-NAME.

      *%****************************** *
      *%CLOSE ALL RECORD-RELATED CURSORS
      *%****************************** *
           MOVE DBLINK-R4410-TRVL-INV TO DBLINK-RECORD-MADE-CURRENT.
           MOVE ' ' TO DBLINK-CURSOR-NAME-WORK.
           PERFORM 991-CLOSE-CURSORS
              THRU 991-CLOSE-CURSORS-EXIT.
           IF ERROR-STATUS = DBLINK-DB2-ERROR
               GO TO 985-CURR-R4410-TRVL-INV-EXIT
           END-IF.
           MOVE ' ' TO DBLINK-RECORD-MADE-CURRENT.

      *%****************************** *
      *%SET RECORD KEY
      *%****************************** *
           IF DBLINK-TYPE-GET NOT = DBLINK-CURR
               MOVE TRI-DOC-NBR TO DBLINK-R4410-TRVL-INV-01
           END-IF.

      *%****************************** *
      *%SET CURRENT OF RUN-UNIT
      *%****************************** *
           MOVE DBLINK-R4410-TRVL-INV TO DBLINK-VIEW-NAME-CURRENT.
           MOVE DBLINK-R4410-TRVL-INV-KEY TO DBLINK-VIEW-200-CURRENT.

      *%****************************** *
      *%SET KEYS FOR SETS WHICH RECORD OWNS
      *%****************************** *

      *%****************************** *
      *%SET S-4410-4411
      *%****************************** *
           MOVE DBLINK-R4410-TRVL-INV-01 TO DBLINK-S-4410-4411-01.
           MOVE LOW-VALUES TO DBLINK-S-4410-4411-KEY-M.

      *%****************************** *
      *%SET KEYS FOR SETS IN WHICH RECORD IS MEMBER
      *%****************************** *
       985-CURR-R4410-TRVL-INV-EXIT.
           EXIT.
      /
      *%-------------------------------------------------------------- *
      *%                                                               *
      *%              985-CURR-R4411-INV-ACCT ROUTINE                  *
      *%                                                               *
      *%-------------------------------------------------------------- *
       985-CURR-R4411-INV-ACCT.
           MOVE '985-CURR-R4411-INV-ACCT' TO DBLINK-CURR-PARAGRAPH.

      *%****************************** *
      *%INITIALIZE DBLINK SUBSCHEMA-CTRL
      *%****************************** *
           MOVE ZERO TO ERROR-STATUS.
           MOVE SPACES TO ERROR-AREA.
           MOVE SPACES TO ERROR-SET.
           MOVE SPACES TO ERROR-RECORD.
           MOVE 'R4411-INV-ACCT' TO RECORD-NAME.
           MOVE 'F-TRVL' TO AREA-NAME.

      *%****************************** *
      *%CLOSE ALL RECORD-RELATED CURSORS
      *%****************************** *
           MOVE DBLINK-R4411-INV-ACCT TO DBLINK-RECORD-MADE-CURRENT.
           MOVE ' ' TO DBLINK-CURSOR-NAME-WORK.
           PERFORM 991-CLOSE-CURSORS
              THRU 991-CLOSE-CURSORS-EXIT.
           IF ERROR-STATUS = DBLINK-DB2-ERROR
               GO TO 985-CURR-R4411-INV-ACCT-EXIT
           END-IF.
           MOVE ' ' TO DBLINK-RECORD-MADE-CURRENT.

      *%****************************** *
      *%SET RECORD KEY
      *%****************************** *
           IF DBLINK-TYPE-GET NOT = DBLINK-CURR
               MOVE IVT-FK-TRI-DOC-NBR TO DBLINK-R4411-INV-ACCT-01
               MOVE IVT-SEQ-NBR TO DBLINK-R4411-INV-ACCT-02
           END-IF.

      *%****************************** *
      *%SET CURRENT OF RUN-UNIT
      *%****************************** *
           MOVE DBLINK-R4411-INV-ACCT TO DBLINK-VIEW-NAME-CURRENT.
           MOVE DBLINK-R4411-INV-ACCT-KEY TO DBLINK-VIEW-200-CURRENT.

      *%****************************** *
      *%SET KEYS FOR SETS WHICH RECORD OWNS
      *%****************************** *

      *%****************************** *
      *%SET KEYS FOR SETS IN WHICH RECORD IS MEMBER
      *%****************************** *

      *%****************************** *
      *%SET S-4401-4411
      *%****************************** *
           MOVE DBLINK-NOT-MEMBER TO DBLINK-S-4401-4411-F
           IF IVT-EVT-SETF = DBLINK-MEMBER
               MOVE IVT-EVT-SETF TO DBLINK-S-4401-4411-F
               MOVE IVT-FK-EVT-EVENT-NBR TO DBLINK-S-4401-4411-01
               MOVE IVT-EVT-SET-TS TO DBLINK-S-4401-4411-02
           END-IF.

      *%****************************** *
      *%SET S-4410-4411
      *%****************************** *
           MOVE IVT-FK-TRI-DOC-NBR TO DBLINK-S-4410-4411-01.
           MOVE IVT-SEQ-NBR TO DBLINK-S-4410-4411-02.
       985-CURR-R4411-INV-ACCT-EXIT.
           EXIT.
      /
      *%-------------------------------------------------------------- *
      *%                                                               *
      *%                985-EOS-S-4401-4411 ROUTINE                    *
      *%                                                               *
      *%-------------------------------------------------------------- *
       985-EOS-S-4401-4411.
           MOVE '985-EOS-S-4401-4411' TO DBLINK-CURR-PARAGRAPH.

      *%****************************** *
      *%INITIALIZE DBLINK SUBSCHEMA-CTRL
      *%****************************** *
           MOVE SPACES TO ERROR-AREA.
           MOVE SPACES TO ERROR-RECORD.
           MOVE 'R4401-EVENT' TO RECORD-NAME.
           MOVE 'F-TRVL' TO AREA-NAME.

      *%****************************** *
      *%SET OWNER RECORD KEY
      *%****************************** *
           MOVE DBLINK-S-4401-4411-01 TO DBLINK-R4401-EVENT-01.

      *%****************************** *
      *%SET CURRENT OF RUN-UNIT
      *%****************************** *
           MOVE DBLINK-R4401-EVENT TO DBLINK-VIEW-NAME-CURRENT.
           MOVE DBLINK-R4401-EVENT-KEY TO DBLINK-VIEW-200-CURRENT.

      *%****************************** *
      *%SET KEY FOR SET
      *%****************************** *

      *%****************************** *
      *%SET S-4401-4411
      *%****************************** *
           MOVE LOW-VALUES TO DBLINK-S-4401-4411-KEY-M.
       985-EOS-S-4401-4411-EXIT.
           EXIT.
      /
      *%-------------------------------------------------------------- *
      *%                                                               *
      *%                  986-RESET-KEYS ROUTINE                       *
      *%                                                               *
      *%-------------------------------------------------------------- *
       986-RESET-KEYS.
           MOVE '986-RESET-KEYS' TO DBLINK-CURR-PARAGRAPH.
           MOVE SPACES TO DBLINK-RECORD-KEYS.
           MOVE LOW-VALUES TO DBLINK-SET-KEYS.
       986-RESET-KEYS-EXIT.
           EXIT.
      /
      *%-------------------------------------------------------------- *
      *%                                                               *
      *%                 991-CLOSE-CURSORS ROUTINE                     *
      *%                                                               *
      *%-------------------------------------------------------------- *
       991-CLOSE-CURSORS.
           IF DBLINK-S-4401-4411-N-CODE = DBLINK-OPEN
               IF DBLINK-CURSOR-NAME-WORK = DBLINK-S-4401-4411-N
                 OR DBLINK-CURSOR-NAME-WORK = '$$ALL'
                 OR DBLINK-CURSOR-NAME-WORK = S-4401-4411
                 OR DBLINK-RECORD-MADE-CURRENT = DBLINK-R4401-EVENT
                   EXEC SQL
                       CLOSE S_4401_4411_N
                   END-EXEC
                   IF SQLCODE NOT = 0
                       MOVE DBLINK-DB2-ERROR TO ERROR-STATUS
                       GO TO 991-CLOSE-CURSORS-EXIT
                   END-IF
                   MOVE DBLINK-CLOSED TO DBLINK-S-4401-4411-N-CODE
                 ELSE
               IF (DBLINK-RECORD-MADE-CURRENT = DBLINK-R4411-INV-ACCT
                 AND IVT-EVT-SETF = DBLINK-MEMBER
                 AND DBLINK-SET-NAME-WORK NOT = S-4401-4411)
                   EXEC SQL
                       CLOSE S_4401_4411_N
                   END-EXEC
                   IF SQLCODE NOT = 0
                       MOVE DBLINK-DB2-ERROR TO ERROR-STATUS
                       GO TO 991-CLOSE-CURSORS-EXIT
                   END-IF
                   MOVE DBLINK-CLOSED TO DBLINK-S-4401-4411-N-CODE
               END-IF
           END-IF.
       991-CLOSE-CURSORS-EXIT.
           EXIT.
      /
      *%-------------------------------------------------------------- *
      *%                                                               *
      *%                    996-COMMIT ROUTINE                         *
      *%                                                               *
      *%-------------------------------------------------------------- *
       996-COMMIT.
           MOVE '996-COMMIT' TO DBLINK-CURR-PARAGRAPH.
           EXEC SQL
               COMMIT WORK
           END-EXEC.
       996-COMMIT-EXIT.
           EXIT.
      /
      *%-------------------------------------------------------------- *
      *%                                                               *
      *%                  999-SQL-STATUS ROUTINE                       *
      *%                                                               *
      *%-------------------------------------------------------------- *
       999-SQL-STATUS.
           EXEC SQL
               INCLUDE BTCHERR
           END-EXEC.
       999-SQL-STATUS-EXIT.
           EXIT.

